com\nlmk\api\model\DayPlan.class
com\nlmk\adp\Application.class
com\nlmk\api\model\ResourcesGroup.class
com\nlmk\api\model\DayPlanUpdate.class
com\nlmk\api\WagonPlanApi.class
com\nlmk\adp\config\SwaggerDocumentationConfig.class
com\nlmk\adp\controller\Rest.class
com\nlmk\api\model\ResourceGroupName.class
com\nlmk\adp\config\HomeController.class
com\nlmk\api\model\ResourcePlan.class
com\nlmk\api\model\Operation.class
