D:\Projects\nlmk\Archetype\test-us8\src\main\java\com\nlmk\adp\config\SwaggerDocumentationConfig.java
D:\Projects\nlmk\Archetype\test-us8\target\generated-sources\src\main\java\com\nlmk\api\model\DayPlanUpdate.java
D:\Projects\nlmk\Archetype\test-us8\target\generated-sources\src\main\java\com\nlmk\api\model\ResourcePlan.java
D:\Projects\nlmk\Archetype\test-us8\target\generated-sources\src\main\java\com\nlmk\api\model\ResourceGroupName.java
D:\Projects\nlmk\Archetype\test-us8\src\main\java\com\nlmk\adp\Application.java
D:\Projects\nlmk\Archetype\test-us8\src\main\java\com\nlmk\adp\config\HomeController.java
D:\Projects\nlmk\Archetype\test-us8\target\generated-sources\src\main\java\com\nlmk\api\model\ResourcesGroup.java
D:\Projects\nlmk\Archetype\test-us8\target\generated-sources\src\main\java\com\nlmk\api\WagonPlanApi.java
D:\Projects\nlmk\Archetype\test-us8\src\main\java\com\nlmk\adp\controller\Rest.java
D:\Projects\nlmk\Archetype\test-us8\target\generated-sources\src\main\java\com\nlmk\api\model\DayPlan.java
D:\Projects\nlmk\Archetype\test-us8\target\generated-sources\src\main\java\com\nlmk\api\model\Operation.java
